R programming course lecture 3
…
Select from lpr and pivot wider

lpr |> select(pid, age, sex, visit, hdia)|>
  pivot_wider(
      names_from = visit,
      values_from = hdia,
      names_prefix = "visit_"
  )

# A tibble: 400 × 16
   pid     age sex   visit_1 visit_2 visit_3 visit_4 visit_5 visit_6 visit_7
   <chr> <dbl> <chr> <chr>   <chr>   <chr>   <chr>   <chr>   <chr>   <chr>  
 1 A001   72.5 f     H560    C871    C040    F412    F622    <NA>    <NA>   
 2 A002   81.5 f     B481    K959    G902    <NA>    <NA>    <NA>    <NA>   
 3 A003   54.5 m     E841    E071    H189    B090    C031    E179    E950   
 4 A004   72.5 f     D921    B401    B491    G172    E161    <NA>    <NA>   
 5 A005   86   f     J751    B101    <NA>    <NA>    <NA>    <NA>    <NA>   
 6 A006   77   f     E310    C231    C212    B251    <NA>    <NA>    <NA>   
 7 A007   86   f     I462    F190    <NA>    <NA>    <NA>    <NA>    <NA>   
 8 A008   90.5 f     C451    <NA>    <NA>    <NA>    <NA>    <NA>    <NA>   
 9 A009   72.5 f     D162    H580    C729    B992    B500    <NA>    <NA>   
10 A010   63.5 m     A709    A772    B800    F212    K402    F712    K180   
# ℹ 390 more rows
# ℹ 6 more variables: visit_8 <chr>, visit_9 <chr>, visit_10 <chr>,
#   visit_11 <chr>, visit_12 <chr>, visit_13 <chr>
…
